{
    "apiKey": "AIzaSyAD9hqsnFNPW-k9ar41EmYk4i8U-fXQOak",
    "authDomain": "site-org-automation.firebaseapp.com",
    "databaseURL": "https://site-org-automation.firebaseio.com",
    "projectId": "site-org-automation",
    "storageBucket": "site-org-automation.appspot.com",
    "messagingSenderId": "214853563271",
    "appId": "1:214853563271:web:481cd02c27c4816010d922",
    "measurementId": "G-YBM0LX8NMB"
}